…
    ## Rows: 100 Columns: 7
    ## ── Column specification ────────────────────────────────────────────────────────
    ## Delimiter: ","
    ## chr (3): w1_intervention, w2_intervention, w3_intervention
    ## dbl (4): day, worker1, worker2, worker3
    ## 
    ## ℹ Use `spec()` to retrieve the full column specification for this data.
    ## ℹ Specify the column types or set `show_col_types = FALSE` to quiet this message.

``` r
performance_data
```

    ## # A tibble: 100 × 7
    ##      day worker1 w1_intervention  worker2 w2_intervention  worker3 w3_interven…¹
    ##    <dbl>   <dbl> <chr>              <dbl> <chr>              <dbl> <chr>        
    ##  1     1 -1.28   None             0.639   None             0.643   None         
    ##  2     2  1.41   None            -0.0664  None             0.366   None         
    ##  3     3  0.353  None             0.0245  None             0.553   None         
    ##  4     4  0.360  None            -0.836   None             1.31    None         
    ##  5     5 -0.650  None            -0.00423 None            -0.00580 None         
    ##  6     6  1.71   None            -1.16    None            -0.442   None         
    ##  7     7 -0.326  None            -0.297   None             0.468   None         
    ##  8     8  0.0118 None            -1.08    None             0.0172  None         
    ##  9     9  0.248  None            -0.396   None             1.31    None         
    ## 10    10  0.224  None             3.43    A                0.382   None         
    ## # … with 90 more rows, and abbreviated variable name ¹​w3_intervention
